…
    ## `summarise()` ungrouping output (override with `.groups` argument)

``` r
homicide_df %>% 
  group_by(city_state) %>% 
  summarize(
    hom_total = n()
  ) %>% 
  arrange(hom_total)
```

    ## `summarise()` ungrouping output (override with `.groups` argument)

    ## # A tibble: 50 x 2
    ##    city_state        hom_total
    ##    <chr>                 <int>
    ##  1 Tampa_FL                208
    ##  2 Savannah_GA             246
    ##  3 San Bernardino_CA       275
    ##  4 Durham_NC               276
    ##  5 Denver_CO               312
    ##  6 Minneapolis_MN          366
    ##  7 Sacramento_CA           376
    ##  8 Albuquerque_NM          378
    ##  9 Long Beach_CA           378
    ## 10 Omaha_NE                409
    ## # … with 40 more rows
…
